<?xml version="1.0" encoding="utf-8"?>
<!-- Generator: Adobe Illustrator 23.0.3, SVG Export Plug-In . SVG Version: 6.00 Build 0)  -->
<svg version="1.1" id="Camada_1" xmlns="http://www.w3.org/2000/svg" xmlns:xlink="http://www.w3.org/1999/xlink" x="0px" y="0px"
	 viewBox="0 0 3081.4 1080" style="enable-background:new 0 0 3081.4 1080;" xml:space="preserve">
<style type="text/css">
	.st0{fill:#FFFFFF;}
</style>
<g>
	<path class="st0" d="M732.4,459.7c100.2,177.7-62.8,312-194.5,185.8C335.3,451.4,572.2,8.7,807.2,469.7
		c-171.4-486.1-687.4-244.5-509,186.7c182.5,440.9,763.4,155.1,407.6-242c-25.9-26.9-62.4-36.8-91.4-21.7
		c-37,19.3-47.8,71.9-24.1,117.6c23.7,45.7,73,67,110.1,47.8C732.4,541.6,744.8,500.1,732.4,459.7"/>
	<g>
		<g>
			<path class="st0" d="M1147.8,713.3c-15.8,6.5-48.9,13-75.5,13c-42.3,0-74.4-11.9-98.3-36.4c-31.5-30.4-48.3-84.8-47.3-147.8
				c1.6-133.1,77.2-188.5,155.9-188.5c27.7,0,47.8,5.4,59.2,10.9l-12,61.4c-10.9-5.4-24.4-8.1-41.8-8.1
				c-48.9,0-87.5,33.1-87.5,128.2c0,88,34.2,120,67.9,120c6.5,0,11.4-0.5,14.1-1.6v-88.6h-33.2v-58.1h98.3L1147.8,713.3
				L1147.8,713.3z"/>
			<polygon class="st0" points="1338,562.3 1254.9,562.3 1254.9,661.1 1348.9,661.1 1348.9,723.1 1183.7,723.1 1183.7,356.9 
				1342.9,356.9 1342.9,418.9 1254.9,418.9 1254.9,503 1338,503 			"/>
			<path class="st0" d="M1438.7,639.4l-16.3,83.7h-69l79.3-366.2h85.3l71.2,366.2h-69l-15.7-83.7H1438.7z M1497.9,584l-12-76.6
				c-3.8-22.3-8.7-59.2-11.9-83.1h-1.6c-3.8,24.5-9.2,61.9-13,83.1l-13.6,76.6H1497.9z"/>
			<path class="st0" d="M1612.1,362.3c20.1-4.4,47.3-7.1,74.4-7.1c42.4,0,76.1,6,99.4,28.3c21.7,19,31.5,49.4,31.5,80.4
				c0,39.6-12,67.9-31,88c-22.8,24.5-59.3,35.3-89.1,35.3c-4.9,0-9.3,0-14.1-0.5v136.3h-71.2L1612.1,362.3L1612.1,362.3z
				 M1683.3,529.1c3.8,0.5,7.6,0.5,12,0.5c35.9,0,51.6-25.5,51.6-59.8c0-32.1-13-57.1-46.2-57.1c-6.5,0-13,1.1-17.4,2.7
				L1683.3,529.1L1683.3,529.1z"/>
		</g>
		<g>
			<path class="st0" d="M1891.2,679.5c9.1,5.8,25,13.3,41.5,13.3c22.9,0,37.8-14.4,37.8-37.3c0-19.7-6.9-33-33-50.5
				c-33.5-21.3-51.6-43.7-51.6-73c0-42,30.9-71.3,70.8-71.3c20.2,0,35.2,6.9,45.8,13.3l-10.6,30.9c-10.1-6.9-20.7-11.7-34.6-11.7
				c-21.8,0-33,16-33,33c0,17,6.4,26.6,32,44.1c29.8,19.2,53.2,42.6,53.2,78.3c0,51.6-35.1,76.6-77.7,76.6
				c-18.6,0-39.4-5.9-50.5-14.9L1891.2,679.5z"/>
			<path class="st0" d="M2188,663.5c0,19.7,0.5,42.1,2.7,58.5h-36.8l-2.7-27.1h-1.6c-11.2,19.7-29.3,31.4-51.6,31.4
				c-34.1,0-60.7-28.7-60.7-73.4c0-65,51.6-93.2,109.7-93.8v-7.9c0-34.6-9-58.1-41-58.1c-16,0-30.3,4.8-42.6,13.3l-9-28.7
				c11.2-8,34.6-17,60.1-17c51.6,0,73.5,33.5,73.5,91L2188,663.5L2188,663.5z M2148.1,588.4c-21.3,0-70.8,4.3-70.8,60.2
				c0,34.1,17,45.7,31.4,45.7c18.1,0,33-13.3,37.8-38.9c1.1-4.8,1.6-10.1,1.6-14.9L2148.1,588.4L2148.1,588.4z"/>
			<path class="st0" d="M2400.7,651.8c0,28.2,1.6,51.1,2.1,70.3h-35.7l-3.2-27.1h-1.1c-7.4,12.7-27.1,31.4-54.8,31.4
				c-44.7,0-62.8-35.1-62.8-99V464.4h41v157.1c0,40.4,6.4,70.3,34.6,70.3c24,0,34.6-22.4,36.8-34.1c1.6-6.9,2.1-14.9,2.1-23.4V464.4
				h41L2400.7,651.8L2400.7,651.8z M2390,359l-55.9,71.9H2307l41-71.9H2390z"/>
			<path class="st0" d="M2613.4,353.7v306.6c0,17.6,1.5,46.9,2.1,61.8h-35.2l-2.6-32h-1.6c-8.5,18.1-26.6,36.3-54.3,36.3
				c-43.1,0-74.5-46.9-74.5-132c0-91,37.8-133.7,77.2-133.7c19.2,0,37.2,8.6,47.4,30.4h1.1V353.7H2613.4z M2572.9,562.9
				c0-5.3,0-11.7-0.6-17c-2.7-27.1-18.6-50-38.3-50c-34.1,0-45.8,47.4-45.8,98.5c0,54.3,13.9,97.9,43.7,97.9
				c12.7,0,30.3-6.9,39.4-44.2c1-4.8,1.6-10.6,1.6-17V562.9z"/>
			<path class="st0" d="M2699.9,597c0,79.3,31.4,95.8,60.7,95.8c18.1,0,32.4-4.2,42.6-9.6l6.9,29.9c-14.4,7.4-36.2,12.2-57,12.2
				c-61.8,0-93.7-50.5-93.7-129.3c0-83.1,35.7-135.2,87.3-135.2c52.2,0,73.5,55.4,73.5,112.9c0,10.1-0.6,17-1.1,23.4L2699.9,597
				L2699.9,597z M2780.8,566.6c0.6-51.1-18.6-74-38.3-74c-27.2,0-40.4,38.9-42,74H2780.8z"/>
		</g>
	</g>
</g>
</svg>
